…
    model_1  = map(train, ~lm(bwt ~babysex + bhead + blength + delwt + fincome, data = .x)),
    model_2  = map(train, ~lm(bwt ~blength + gaweeks, data = .x)),
    model_3  = map(train, ~lm(bwt ~bhead + blength + babysex + 
              bhead * blength + bhead * babysex + blength * babysex + bhead * blength * babysex,
              data = .x))) %>% 
  mutate(rmse_model1 = 
        map2_dbl(model_1, test, ~rmse(model = .x, data = .y)),
        rmse_model2 = 
        map2_dbl(model_2, test, ~rmse(model = .x, data = .y)),
        rmse_model3 =
        map2_dbl(model_3, test, ~rmse(model = .x, data = .y)))
cv_df
```

    ## # A tibble: 100 × 9
    ##    train test  .id   model_1 model_2 model_3 rmse_model1 rmse_model2 rmse_model3
    ##    <lis> <lis> <chr> <list>  <list>  <list>        <dbl>       <dbl>       <dbl>
    ##  1 <tib… <tib… 001   <lm>    <lm>    <lm>           293.        360.        302.
    ##  2 <tib… <tib… 002   <lm>    <lm>    <lm>           278.        322.        280.
    ##  3 <tib… <tib… 003   <lm>    <lm>    <lm>           272.        307.        279.
    ##  4 <tib… <tib… 004   <lm>    <lm>    <lm>           296.        337.        298.
    ##  5 <tib… <tib… 005   <lm>    <lm>    <lm>           296.        367.        303.
    ##  6 <tib… <tib… 006   <lm>    <lm>    <lm>           278.        314.        282.
    ##  7 <tib… <tib… 007   <lm>    <lm>    <lm>           287.        357.        290.
    ##  8 <tib… <tib… 008   <lm>    <lm>    <lm>           297.        346.        301.
    ##  9 <tib… <tib… 009   <lm>    <lm>    <lm>           280.        327.        287.
    ## 10 <tib… <tib… 010   <lm>    <lm>    <lm>           284.        338.        292.
    ## # … with 90 more rows
…
    ## Registered S3 method overwritten by 'hoardr':
    ##   method           from
    ##   print.cache_info httr

    ## using cached file: ~/Library/Caches/R/noaa_ghcnd/USW00094728.dly

    ## date created (size, mb): 2021-10-12 10:11:19 (7.604)

    ## file min/max dates: 1869-01-01 / 2021-10-31

``` r
weather_df 
```

    ## # A tibble: 365 × 6
    ##    name           id          date        prcp  tmax  tmin
    ##    <chr>          <chr>       <date>     <dbl> <dbl> <dbl>
    ##  1 CentralPark_NY USW00094728 2017-01-01     0   8.9   4.4
    ##  2 CentralPark_NY USW00094728 2017-01-02    53   5     2.8
    ##  3 CentralPark_NY USW00094728 2017-01-03   147   6.1   3.9
    ##  4 CentralPark_NY USW00094728 2017-01-04     0  11.1   1.1
    ##  5 CentralPark_NY USW00094728 2017-01-05     0   1.1  -2.7
    ##  6 CentralPark_NY USW00094728 2017-01-06    13   0.6  -3.8
    ##  7 CentralPark_NY USW00094728 2017-01-07    81  -3.2  -6.6
    ##  8 CentralPark_NY USW00094728 2017-01-08     0  -3.8  -8.8
    ##  9 CentralPark_NY USW00094728 2017-01-09     0  -4.9  -9.9
    ## 10 CentralPark_NY USW00094728 2017-01-10     0   7.8  -6  
    ## # … with 355 more rows

``` r
bootstrap_r =
  weather_df %>% 
  modelr::bootstrap(n = 5000) %>% 
  mutate(
    models = map(strap, ~lm( tmax ~ tmin , data = .x) ),
    results = map(models, broom::glance)) %>% 
  select(.id, results) %>% 
  unnest(results)

bootstrap_r
```

    ## # A tibble: 5,000 × 13
    ##    .id   r.squared adj.r.squared sigma statistic   p.value    df logLik   AIC
    ##    <chr>     <dbl>         <dbl> <dbl>     <dbl>     <dbl> <dbl>  <dbl> <dbl>
    ##  1 0001      0.898         0.897  3.08     3185. 8.83e-182     1  -928. 1861.
    ##  2 0002      0.913         0.913  2.93     3833. 5.33e-195     1  -910. 1825.
    ##  3 0003      0.902         0.901  2.99     3332. 5.64e-185     1  -917. 1840.
    ##  4 0004      0.904         0.904  3.08     3410. 1.23e-186     1  -928. 1862.
    ##  5 0005      0.920         0.920  2.82     4188. 2.07e-201     1  -896. 1798.
    ##  6 0006      0.904         0.903  3.03     3403. 1.79e-186     1  -921. 1849.
    ##  7 0007      0.917         0.917  2.89     4023. 1.68e-198     1  -905. 1816.
    ##  8 0008      0.919         0.919  2.84     4125. 2.65e-200     1  -899. 1803.
    ##  9 0009      0.915         0.915  2.90     3928. 8.83e-197     1  -905. 1816.
    ## 10 0010      0.906         0.906  2.96     3508. 1.20e-188     1  -913. 1832.
    ## # … with 4,990 more rows, and 4 more variables: BIC <dbl>, deviance <dbl>,
    ## #   df.residual <int>, nobs <int>
…
    results = map(models, broom::tidy)) %>% 
  select(.id, results) %>% 
  unnest(results)%>% 
  select(.id, term, estimate) %>% 
  pivot_wider(
    names_from = "term",
    values_from = "estimate"
  ) %>% 
  mutate(
    log = log(`(Intercept)` * tmin)
  ) 
bootstrap_log
```

    ## # A tibble: 5,000 × 4
    ##    .id   `(Intercept)`  tmin   log
    ##    <chr>         <dbl> <dbl> <dbl>
    ##  1 0001           7.22  1.04  2.01
    ##  2 0002           7.17  1.04  2.01
    ##  3 0003           7.23  1.04  2.02
    ##  4 0004           7.16  1.03  2.00
    ##  5 0005           7.39  1.02  2.02
    ##  6 0006           7.48  1.02  2.03
    ##  7 0007           7.12  1.06  2.02
    ##  8 0008           7.26  1.03  2.01
    ##  9 0009           7.24  1.04  2.02
    ## 10 0010           7.20  1.05  2.02
    ## # … with 4,990 more rows
…
